…
For cohort 1 (final summary). Noted that there are some mismatch between
column names. Need to fix that before combining data frames.

``` r
# s1 says "I find it difficult to find transportation to go outdoor climbing", while
# s2 says "I find it difficult to find transportation to outdoor climbing"
# There are many mis-match between s3 and s1&s2. Need check!

names(data_c1_s1_clean)[23] <- names(data_c1_s2_clean)[23] 
data_c1_clean <- rbind(data_c1_s1_clean, data_c1_s2_clean) 
data_c1_clean
```

    ## # A tibble: 25 x 26
    ##    `Respondent ID` `Collector ID` indoor_style_practice      outdoor_style_prac~
    ##    <chr>                    <dbl> <chr>                      <chr>              
    ##  1 Participant 1        270250947 "Bouldering"               "Bouldering"       
    ##  2 Participant 2        270250947 "Bouldering"               ""                 
    ##  3 Participant 3        270250947 "Bouldering"               ""                 
    ##  4 Participant 4        270250947 "Bouldering"               ""                 
    ##  5 Participant 5        270251884 "Bouldering,Top-rope"      ""                 
    ##  6 Participant 6        270251884 ""                         ""                 
    ##  7 Participant 7        270251884 "Bouldering,Top-rope"      ""                 
    ##  8 Participant 8        270251884 "Bouldering"               "Bouldering"       
    ##  9 Participant 9        270250932 "Bouldering,Top-rope"      "Top-rope"         
    ## 10 Participant 10       270251884 "Bouldering,Top-rope,Lead" "Top-rope"         
    ## # ... with 15 more rows, and 22 more variables: `I love to climb` <fct>,
    ## #   `Climbing is fun` <fct>, `I am motivated to climb` <fct>,
    ## #   `I feel encouraged in my climbing` <fct>,
    ## #   `I feel hindered in my climbing` <fct>,
    ## #   `I am inspired to climb by my female-identified climbing friends` <fct>,
    ## #   `I am inspired to climb by films showcasing outdoor women climbers` <fct>,
    ## #   `I am inspired to spend more time outdoors after watching films that showcase outdoor women climbers` <fct>, ...
…
